nohup: ignoring input
[u'discriminator/softmax_w:0', u'discriminator/softmax_b:0', u'discriminator/lstm_cell/weights:0', u'discriminator/lstm_cell/biases:0', u'generator/softmax_w:0', u'generator/softmax_b:0', u'generator/lstm_cell/weights:0', u'generator/lstm_cell/biases:0']
2017-04-02 00:13:52.413378: W tensorflow/core/platform/cpu_feature_guard.cc:45] The TensorFlow library wasn't compiled to use SSE4.1 instructions, but these are available on your machine and could speed up CPU computations.
2017-04-02 00:13:52.413428: W tensorflow/core/platform/cpu_feature_guard.cc:45] The TensorFlow library wasn't compiled to use SSE4.2 instructions, but these are available on your machine and could speed up CPU computations.
2017-04-02 00:13:52.413436: W tensorflow/core/platform/cpu_feature_guard.cc:45] The TensorFlow library wasn't compiled to use AVX instructions, but these are available on your machine and could speed up CPU computations.
2017-04-02 00:13:52.413442: W tensorflow/core/platform/cpu_feature_guard.cc:45] The TensorFlow library wasn't compiled to use AVX2 instructions, but these are available on your machine and could speed up CPU computations.
2017-04-02 00:13:52.413448: W tensorflow/core/platform/cpu_feature_guard.cc:45] The TensorFlow library wasn't compiled to use FMA instructions, but these are available on your machine and could speed up CPU computations.
2017-04-02 00:14:00.729823: I tensorflow/core/common_runtime/gpu/gpu_device.cc:887] Found device 0 with properties: 
name: Tesla K80
major: 3 minor: 7 memoryClockRate (GHz) 0.8235
pciBusID 0000:86:00.0
Total memory: 11.17GiB
Free memory: 11.11GiB
2017-04-02 00:14:00.729865: I tensorflow/core/common_runtime/gpu/gpu_device.cc:908] DMA: 0 
2017-04-02 00:14:00.729872: I tensorflow/core/common_runtime/gpu/gpu_device.cc:918] 0:   Y 
2017-04-02 00:14:00.729881: I tensorflow/core/common_runtime/gpu/gpu_device.cc:977] Creating TensorFlow device (/gpu:0) -> (device: 0, name: Tesla K80, pci bus id: 0000:86:00.0)
WARNING:tensorflow:From model.py:153: initialize_all_variables (from tensorflow.python.ops.variables) is deprecated and will be removed after 2017-03-02.
Instructions for updating:
Use `tf.global_variables_initializer` instead.
Test g_pre_loss after loading model: 6.17144855
2017-04-02 00:14:26.916271: I tensorflow/core/common_runtime/gpu/pool_allocator.cc:247] PoolAllocator: After 15107 get requests, put_count=15056 evicted_count=1000 eviction_rate=0.0664187 and unsatisfied allocation rate=0.0761898
2017-04-02 00:14:26.916327: I tensorflow/core/common_runtime/gpu/pool_allocator.cc:259] Raising pool_size_limit_ from 100 to 110
2017-04-02 00:14:39.902821: I tensorflow/core/common_runtime/gpu/pool_allocator.cc:247] PoolAllocator: After 6378 get requests, put_count=6451 evicted_count=1000 eviction_rate=0.155015 and unsatisfied allocation rate=0.14895
2017-04-02 00:14:39.902908: I tensorflow/core/common_runtime/gpu/pool_allocator.cc:259] Raising pool_size_limit_ from 256 to 281
Test Loss after epoch 0: 6.17168775
Test Loss after epoch 1: 6.17092586
Test Loss after epoch 2: 6.17304998
Test Loss after epoch 3: 6.17161754
Test Loss after epoch 4: 6.17186501
Test Loss after epoch 5: 6.17225679
Test Loss after epoch 6: 6.17284887
Test Loss after epoch 7: 6.17139883
Test Loss after epoch 8: 6.17181480
Test Loss after epoch 9: 6.17066116
Test Loss after epoch 10: 6.17074575
Test Loss after epoch 11: 6.17232982
Test Loss after epoch 12: 6.17264728
Test Loss after epoch 13: 6.17162560
Test Loss after epoch 14: 6.17089667
Test Loss after epoch 15: 6.17292762
Test Loss after epoch 16: 6.17237791
Test Loss after epoch 17: 6.17143160
Test Loss after epoch 18: 6.17336823
Test Loss after epoch 19: 6.17315207
Test Loss after epoch 20: 6.17099606
Test Loss after epoch 21: 6.17137122
Test Loss after epoch 22: 6.17228490
Test Loss after epoch 23: 6.17278996
Test Loss after epoch 24: 6.17177724
Test Loss after epoch 25: 6.17133737
Test Loss after epoch 26: 6.17156226
Test Loss after epoch 27: 6.17187065
Test Loss after epoch 28: 6.17362938
Test Loss after epoch 29: 6.17310343
Test Loss after epoch 30: 6.17194068
Test Loss after epoch 31: 6.17206378
Test Loss after epoch 32: 6.17181662
Test Loss after epoch 33: 6.17217945
Test Loss after epoch 34: 6.17333416
Test Loss after epoch 35: 6.17307985
Test Loss after epoch 36: 6.17089146
Test Loss after epoch 37: 6.17170076
Test Loss after epoch 38: 6.16949123
Test Loss after epoch 39: 6.17296056
Test Loss after epoch 40: 6.17209274
Test Loss after epoch 41: 6.17104764
Test Loss after epoch 42: 6.17103627
Test Loss after epoch 43: 6.17173159
Test Loss after epoch 44: 6.17200118
Test Loss after epoch 45: 6.17346449
Test Loss after epoch 46: 6.17170795
Test Loss after epoch 47: 6.17184079
Test Loss after epoch 48: 6.17296806
Test Loss after epoch 49: 6.17385314
Test Loss after epoch 50: 6.17248836
Test Loss after epoch 51: 6.17183079
Test Loss after epoch 52: 6.17270085
Test Loss after epoch 53: 6.17173406
Test Loss after epoch 54: 6.17239988
Test Loss after epoch 55: 6.17154771
Test Loss after epoch 56: 6.17256931
Test Loss after epoch 57: 6.17298523
Test Loss after epoch 58: 6.17337118
Test Loss after epoch 59: 6.17228350
Test Loss after epoch 60: 6.17162457
Test Loss after epoch 61: 6.17240358
Test Loss after epoch 62: 6.17249211
Test Loss after epoch 63: 6.17313234
Test Loss after epoch 64: 6.17168830
Test Loss after epoch 65: 6.17277855
Test Loss after epoch 66: 6.17240655
Test Loss after epoch 67: 6.17201359
Test Loss after epoch 68: 6.17237774
Test Loss after epoch 69: 6.17241668
Test Loss after epoch 70: 6.17329207
Test Loss after epoch 71: 6.17202018
Test Loss after epoch 72: 6.17183266
Test Loss after epoch 73: 6.17359398
Test Loss after epoch 74: 6.17140571
Test Loss after epoch 75: 6.17194449
Test Loss after epoch 76: 6.17170667
Test Loss after epoch 77: 6.17232182
Test Loss after epoch 78: 6.17226298
Test Loss after epoch 79: 6.17199537
Test Loss after epoch 80: 6.17342548
Test Loss after epoch 81: 6.17183534
Test Loss after epoch 82: 6.17203831
Test Loss after epoch 83: 6.17155340
Test Loss after epoch 84: 6.17183958
Test Loss after epoch 85: 6.17221767
Test Loss after epoch 86: 6.17172911
Test Loss after epoch 87: 6.17174199
Test Loss after epoch 88: 6.17074604
Test Loss after epoch 89: 6.17129967
Test Loss after epoch 90: 6.17343224
Test Loss after epoch 91: 6.17013095
Test Loss after epoch 92: 6.17179921
Test Loss after epoch 93: 6.17217687
Test Loss after epoch 94: 6.17206484
Test Loss after epoch 95: 6.17187838
Test Loss after epoch 96: 6.17200082
Test Loss after epoch 97: 6.17127109
Test Loss after epoch 98: 6.17174806
Test Loss after epoch 99: 6.17132262
Test Loss after epoch 100: 6.17158345
Test Loss after epoch 101: 6.17204994
Test Loss after epoch 102: 6.17076539
Test Loss after epoch 103: 6.17361662
Test Loss after epoch 104: 6.17178137
Test Loss after epoch 105: 6.17284882
Test Loss after epoch 106: 6.17422392
Test Loss after epoch 107: 6.17300293
Test Loss after epoch 108: 6.17094288
Test Loss after epoch 109: 6.17143729
Test Loss after epoch 110: 6.17265805
Test Loss after epoch 111: 6.17206405
Test Loss after epoch 112: 6.17153467
Test Loss after epoch 113: 6.17206439
Test Loss after epoch 114: 6.17224183
Test Loss after epoch 115: 6.17180662
Test Loss after epoch 116: 6.17161560
Test Loss after epoch 117: 6.17016221
Test Loss after epoch 118: 6.17172980
Test Loss after epoch 119: 6.17070343
Test Loss after epoch 120: 6.17168693
Test Loss after epoch 121: 6.17069767
Test Loss after epoch 122: 6.17010682
Test Loss after epoch 123: 6.17069446
Test Loss after epoch 124: 6.17197765
Test Loss after epoch 125: 6.17097820
Test Loss after epoch 126: 6.17047803
Test Loss after epoch 127: 6.17283226
Test Loss after epoch 128: 6.17203107
Test Loss after epoch 129: 6.17202750
Test Loss after epoch 130: 6.17078669
Test Loss after epoch 131: 6.17082216
Test Loss after epoch 132: 6.17195028
Test Loss after epoch 133: 6.17149706
Test Loss after epoch 134: 6.17120353
Test Loss after epoch 135: 6.17257541
Test Loss after epoch 136: 6.17238355
Test Loss after epoch 137: 6.17260630
Test Loss after epoch 138: 6.17423307
Test Loss after epoch 139: 6.17260487
Test Loss after epoch 140: 6.17160177
Test Loss after epoch 141: 6.17094938
Test Loss after epoch 142: 6.17125172
Test Loss after epoch 143: 6.17219780
Test Loss after epoch 144: 6.17252380
Test Loss after epoch 145: 6.17107511
Test Loss after epoch 146: 6.17116983
Test Loss after epoch 147: 6.17241535
Test Loss after epoch 148: 6.17065998
Test Loss after epoch 149: 6.17108493
Test Loss after epoch 150: 6.17131078
Test Loss after epoch 151: 6.17083849
Test Loss after epoch 152: 6.17286513
Test Loss after epoch 153: 6.17133032
Test Loss after epoch 154: 6.17185392
Test Loss after epoch 155: 6.17187414
Test Loss after epoch 156: 6.17216137
Test Loss after epoch 157: 6.17071256
Test Loss after epoch 158: 6.17220650
Test Loss after epoch 159: 6.16956104
Test Loss after epoch 160: 6.17143765
Test Loss after epoch 161: 6.17250332
Test Loss after epoch 162: 6.17145388
Test Loss after epoch 163: 6.17166394
Test Loss after epoch 164: 6.17340892
Test Loss after epoch 165: 6.17067529
Test Loss after epoch 166: 6.17277602
Test Loss after epoch 167: 6.17268414
Test Loss after epoch 168: 6.17118066
Test Loss after epoch 169: 6.17219206
Test Loss after epoch 170: 6.17093908
Test Loss after epoch 171: 6.17175819
Test Loss after epoch 172: 6.17078094
Test Loss after epoch 173: 6.17203350
Test Loss after epoch 174: 6.17183492
Test Loss after epoch 175: 6.17344848
Test Loss after epoch 176: 6.17299844
Test Loss after epoch 177: 6.17218046
Test Loss after epoch 178: 6.17211746
Test Loss after epoch 179: 6.17127313
Test Loss after epoch 180: 6.17129600
Test Loss after epoch 181: 6.17055511
Test Loss after epoch 182: 6.17175322
Test Loss after epoch 183: 6.17100262
Test Loss after epoch 184: 6.17181920
Test Loss after epoch 185: 6.17215278
Test Loss after epoch 186: 6.17051029
Test Loss after epoch 187: 6.17167484
Test Loss after epoch 188: 6.17343780
Test Loss after epoch 189: 6.17088521
Test Loss after epoch 190: 6.17166169
Test Loss after epoch 191: 6.17014686
Test Loss after epoch 192: 6.17105038
Test Loss after epoch 193: 6.17092019
Test Loss after epoch 194: 6.17129453
Test Loss after epoch 195: 6.17277176
Test Loss after epoch 196: 6.17150433
Test Loss after epoch 197: 6.17240725
Test Loss after epoch 198: 6.17112724
Test Loss after epoch 199: 6.17269880
Test Loss after epoch 200: 6.16992755
Test Loss after epoch 201: 6.17158352
Test Loss after epoch 202: 6.17162076
Test Loss after epoch 203: 6.17139906
Test Loss after epoch 204: 6.17047240
Test Loss after epoch 205: 6.17097509
Test Loss after epoch 206: 6.17066643
Test Loss after epoch 207: 6.17136408
Test Loss after epoch 208: 6.17108755
Test Loss after epoch 209: 6.17144878
Test Loss after epoch 210: 6.17083559
Test Loss after epoch 211: 6.16965970
Test Loss after epoch 212: 6.17304565
Test Loss after epoch 213: 6.17043393
Test Loss after epoch 214: 6.16968618
Test Loss after epoch 215: 6.17027188
Test Loss after epoch 216: 6.17243344
Test Loss after epoch 217: 6.17174547
Test Loss after epoch 218: 6.17042236
Test Loss after epoch 219: 6.17169940
Test Loss after epoch 220: 6.17078108
Test Loss after epoch 221: 6.17066031
Test Loss after epoch 222: 6.17043819
Test Loss after epoch 223: 6.17153350
Test Loss after epoch 224: 6.16976490
Test Loss after epoch 225: 6.17102575
Test Loss after epoch 226: 6.17048031
Test Loss after epoch 227: 6.17017463
Test Loss after epoch 228: 6.16990901
Test Loss after epoch 229: 6.17288141
Test Loss after epoch 230: 6.17103704
Test Loss after epoch 231: 6.17068009
Test Loss after epoch 232: 6.17147815
Test Loss after epoch 233: 6.17206981
Test Loss after epoch 234: 6.17046538
Test Loss after epoch 235: 6.17181546
Test Loss after epoch 236: 6.17176031
Test Loss after epoch 237: 6.17199055
Test Loss after epoch 238: 6.17036163
Test Loss after epoch 239: 6.17155471
Test Loss after epoch 240: 6.17127938
Test Loss after epoch 241: 6.17172608
Test Loss after epoch 242: 6.17230990
Test Loss after epoch 243: 6.17134936
Test Loss after epoch 244: 6.17064771
Test Loss after epoch 245: 6.17000556
Test Loss after epoch 246: 6.17041206
Test Loss after epoch 247: 6.17218536
Test Loss after epoch 248: 6.17070215
Test Loss after epoch 249: 6.16994657
Test Loss after epoch 250: 6.17122507
Test Loss after epoch 251: 6.17109137
Test Loss after epoch 252: 6.17440417
Test Loss after epoch 253: 6.17079248
Test Loss after epoch 254: 6.17138122
Test Loss after epoch 255: 6.17108735
Test Loss after epoch 256: 6.16994857
Test Loss after epoch 257: 6.17115972
Test Loss after epoch 258: 6.17216925
Test Loss after epoch 259: 6.17198130
Test Loss after epoch 260: 6.17039270
Test Loss after epoch 261: 6.17112925
Test Loss after epoch 262: 6.17106630
Test Loss after epoch 263: 6.17105019
Test Loss after epoch 264: 6.17111554
Test Loss after epoch 265: 6.17050433
Test Loss after epoch 266: 6.17133496
Test Loss after epoch 267: 6.17110313
Test Loss after epoch 268: 6.17192918
Test Loss after epoch 269: 6.17046442
Test Loss after epoch 270: 6.17103371
Test Loss after epoch 271: 6.17074677
Test Loss after epoch 272: 6.17010102
Test Loss after epoch 273: 6.17091286
Test Loss after epoch 274: 6.17160761
Test Loss after epoch 275: 6.17227023
Test Loss after epoch 276: 6.17095369
Test Loss after epoch 277: 6.17260455
Test Loss after epoch 278: 6.17056291
Test Loss after epoch 279: 6.17180059
Test Loss after epoch 280: 6.17249492
Test Loss after epoch 281: 6.17063960
Test Loss after epoch 282: 6.17133359
Test Loss after epoch 283: 6.17057196
Test Loss after epoch 284: 6.17256284
Test Loss after epoch 285: 6.17203849
Test Loss after epoch 286: 6.16971430
Test Loss after epoch 287: 6.17005631
Test Loss after epoch 288: 6.17068163
Test Loss after epoch 289: 6.17140860
Test Loss after epoch 290: 6.17112739
Test Loss after epoch 291: 6.17041741
Test Loss after epoch 292: 6.17068238
Test Loss after epoch 293: 6.17131781
Test Loss after epoch 294: 6.17019675
Test Loss after epoch 295: 6.17085542
Test Loss after epoch 296: 6.17052943
Test Loss after epoch 297: 6.17212108
Test Loss after epoch 298: 6.17070980
Test Loss after epoch 299: 6.17096740
