nohup: ignoring input
[u'discriminator/softmax_w:0', u'discriminator/softmax_b:0', u'discriminator/lstm_cell/weights:0', u'discriminator/lstm_cell/biases:0', u'generator/softmax_w:0', u'generator/softmax_b:0', u'generator/lstm_cell/weights:0', u'generator/lstm_cell/biases:0']
2017-04-02 00:15:13.409686: W tensorflow/core/platform/cpu_feature_guard.cc:45] The TensorFlow library wasn't compiled to use SSE4.1 instructions, but these are available on your machine and could speed up CPU computations.
2017-04-02 00:15:13.409750: W tensorflow/core/platform/cpu_feature_guard.cc:45] The TensorFlow library wasn't compiled to use SSE4.2 instructions, but these are available on your machine and could speed up CPU computations.
2017-04-02 00:15:13.409763: W tensorflow/core/platform/cpu_feature_guard.cc:45] The TensorFlow library wasn't compiled to use AVX instructions, but these are available on your machine and could speed up CPU computations.
2017-04-02 00:15:13.409773: W tensorflow/core/platform/cpu_feature_guard.cc:45] The TensorFlow library wasn't compiled to use AVX2 instructions, but these are available on your machine and could speed up CPU computations.
2017-04-02 00:15:13.409783: W tensorflow/core/platform/cpu_feature_guard.cc:45] The TensorFlow library wasn't compiled to use FMA instructions, but these are available on your machine and could speed up CPU computations.
2017-04-02 00:15:18.870041: I tensorflow/core/common_runtime/gpu/gpu_device.cc:887] Found device 0 with properties: 
name: Tesla K80
major: 3 minor: 7 memoryClockRate (GHz) 0.8235
pciBusID 0000:85:00.0
Total memory: 11.17GiB
Free memory: 11.11GiB
2017-04-02 00:15:18.870093: I tensorflow/core/common_runtime/gpu/gpu_device.cc:908] DMA: 0 
2017-04-02 00:15:18.870101: I tensorflow/core/common_runtime/gpu/gpu_device.cc:918] 0:   Y 
2017-04-02 00:15:18.870112: I tensorflow/core/common_runtime/gpu/gpu_device.cc:977] Creating TensorFlow device (/gpu:0) -> (device: 0, name: Tesla K80, pci bus id: 0000:85:00.0)
WARNING:tensorflow:From model.py:153: initialize_all_variables (from tensorflow.python.ops.variables) is deprecated and will be removed after 2017-03-02.
Instructions for updating:
Use `tf.global_variables_initializer` instead.
Test g_pre_loss after loading model: 6.17285180
2017-04-02 00:15:46.775586: I tensorflow/core/common_runtime/gpu/pool_allocator.cc:247] PoolAllocator: After 15099 get requests, put_count=15033 evicted_count=1000 eviction_rate=0.0665203 and unsatisfied allocation rate=0.0772237
2017-04-02 00:15:46.775642: I tensorflow/core/common_runtime/gpu/pool_allocator.cc:259] Raising pool_size_limit_ from 100 to 110
2017-04-02 00:15:59.112429: I tensorflow/core/common_runtime/gpu/pool_allocator.cc:247] PoolAllocator: After 7471 get requests, put_count=7364 evicted_count=1000 eviction_rate=0.135796 and unsatisfied allocation rate=0.151252
2017-04-02 00:15:59.112506: I tensorflow/core/common_runtime/gpu/pool_allocator.cc:259] Raising pool_size_limit_ from 256 to 281
Test Loss after epoch 0: 6.17188235
Test Loss after epoch 1: 6.17148253
Test Loss after epoch 2: 6.17369948
Test Loss after epoch 3: 6.17151501
Test Loss after epoch 4: 6.17249894
Test Loss after epoch 5: 6.17230129
Test Loss after epoch 6: 6.17207458
Test Loss after epoch 7: 6.17293443
Test Loss after epoch 8: 6.17428818
Test Loss after epoch 9: 6.17187682
Test Loss after epoch 10: 6.17109472
Test Loss after epoch 11: 6.17122166
Test Loss after epoch 12: 6.17127479
Test Loss after epoch 13: 6.17267150
Test Loss after epoch 14: 6.17196638
Test Loss after epoch 15: 6.17111569
Test Loss after epoch 16: 6.17113664
Test Loss after epoch 17: 6.17166311
Test Loss after epoch 18: 6.17381922
Test Loss after epoch 19: 6.17225025
Test Loss after epoch 20: 6.17330374
Test Loss after epoch 21: 6.17095309
Test Loss after epoch 22: 6.17196679
Test Loss after epoch 23: 6.17371464
Test Loss after epoch 24: 6.17320824
Test Loss after epoch 25: 6.17271250
Test Loss after epoch 26: 6.17113123
Test Loss after epoch 27: 6.17152361
Test Loss after epoch 28: 6.17174083
Test Loss after epoch 29: 6.17231043
Test Loss after epoch 30: 6.17101815
Test Loss after epoch 31: 6.17143233
Test Loss after epoch 32: 6.17048736
Test Loss after epoch 33: 6.17283241
Test Loss after epoch 34: 6.17275146
Test Loss after epoch 35: 6.17267628
Test Loss after epoch 36: 6.17317926
Test Loss after epoch 37: 6.17182840
Test Loss after epoch 38: 6.17107240
Test Loss after epoch 39: 6.17265174
Test Loss after epoch 40: 6.17184043
Test Loss after epoch 41: 6.17093895
Test Loss after epoch 42: 6.17258369
Test Loss after epoch 43: 6.17180045
Test Loss after epoch 44: 6.17212094
Test Loss after epoch 45: 6.17152594
Test Loss after epoch 46: 6.17158337
Test Loss after epoch 47: 6.17231403
Test Loss after epoch 48: 6.17230296
Test Loss after epoch 49: 6.17148796
Test Loss after epoch 50: 6.17222562
Test Loss after epoch 51: 6.17209509
Test Loss after epoch 52: 6.17237989
Test Loss after epoch 53: 6.17360608
Test Loss after epoch 54: 6.17169490
Test Loss after epoch 55: 6.17107740
Test Loss after epoch 56: 6.17193400
Test Loss after epoch 57: 6.17308132
Test Loss after epoch 58: 6.17204610
Test Loss after epoch 59: 6.17248631
Test Loss after epoch 60: 6.17278925
Test Loss after epoch 61: 6.17253879
Test Loss after epoch 62: 6.17229317
Test Loss after epoch 63: 6.17308041
Test Loss after epoch 64: 6.17220020
Test Loss after epoch 65: 6.17292609
Test Loss after epoch 66: 6.17310627
Test Loss after epoch 67: 6.17207423
Test Loss after epoch 68: 6.17154210
Test Loss after epoch 69: 6.17241556
Test Loss after epoch 70: 6.17361771
Test Loss after epoch 71: 6.17264913
Test Loss after epoch 72: 6.17121186
Test Loss after epoch 73: 6.17316453
Test Loss after epoch 74: 6.17125654
Test Loss after epoch 75: 6.17081772
Test Loss after epoch 76: 6.17111651
Test Loss after epoch 77: 6.17119270
Test Loss after epoch 78: 6.17049552
Test Loss after epoch 79: 6.17230041
Test Loss after epoch 80: 6.17151566
Test Loss after epoch 81: 6.17145735
Test Loss after epoch 82: 6.17187662
Test Loss after epoch 83: 6.17076160
Test Loss after epoch 84: 6.17152456
Test Loss after epoch 85: 6.17241844
Test Loss after epoch 86: 6.17109784
Test Loss after epoch 87: 6.17424571
Test Loss after epoch 88: 6.17204464
Test Loss after epoch 89: 6.17152745
Test Loss after epoch 90: 6.17158517
Test Loss after epoch 91: 6.17084721
Test Loss after epoch 92: 6.17245236
Test Loss after epoch 93: 6.17126338
Test Loss after epoch 94: 6.17171712
Test Loss after epoch 95: 6.17211732
Test Loss after epoch 96: 6.17203997
Test Loss after epoch 97: 6.17169008
Test Loss after epoch 98: 6.17237437
Test Loss after epoch 99: 6.17273007
Test Loss after epoch 100: 6.17106888
Test Loss after epoch 101: 6.17235254
Test Loss after epoch 102: 6.17284570
Test Loss after epoch 103: 6.17257324
Test Loss after epoch 104: 6.17148079
Test Loss after epoch 105: 6.17198873
Test Loss after epoch 106: 6.17167347
Test Loss after epoch 107: 6.17223915
Test Loss after epoch 108: 6.17360781
Test Loss after epoch 109: 6.17221045
Test Loss after epoch 110: 6.17216072
Test Loss after epoch 111: 6.17283583
Test Loss after epoch 112: 6.17152180
Test Loss after epoch 113: 6.17197788
Test Loss after epoch 114: 6.17238844
Test Loss after epoch 115: 6.17078760
Test Loss after epoch 116: 6.17154221
Test Loss after epoch 117: 6.17197935
Test Loss after epoch 118: 6.17130730
Test Loss after epoch 119: 6.17255016
Test Loss after epoch 120: 6.17245863
Test Loss after epoch 121: 6.17174316
Test Loss after epoch 122: 6.17131943
Test Loss after epoch 123: 6.17165205
Test Loss after epoch 124: 6.17130895
Test Loss after epoch 125: 6.17034354
Test Loss after epoch 126: 6.17250156
Test Loss after epoch 127: 6.17130286
Test Loss after epoch 128: 6.17390952
Test Loss after epoch 129: 6.17087351
Test Loss after epoch 130: 6.17109665
Test Loss after epoch 131: 6.17221766
Test Loss after epoch 132: 6.17137804
Test Loss after epoch 133: 6.17231464
Test Loss after epoch 134: 6.17178164
Test Loss after epoch 135: 6.17073951
Test Loss after epoch 136: 6.17319967
Test Loss after epoch 137: 6.17233107
Test Loss after epoch 138: 6.17181831
Test Loss after epoch 139: 6.17145433
Test Loss after epoch 140: 6.17251305
Test Loss after epoch 141: 6.17223843
Test Loss after epoch 142: 6.17210118
Test Loss after epoch 143: 6.17132094
Test Loss after epoch 144: 6.17063449
Test Loss after epoch 145: 6.17252244
Test Loss after epoch 146: 6.17075081
Test Loss after epoch 147: 6.17145034
Test Loss after epoch 148: 6.17238431
Test Loss after epoch 149: 6.17170794
Test Loss after epoch 150: 6.17181454
Test Loss after epoch 151: 6.17121911
Test Loss after epoch 152: 6.17198449
Test Loss after epoch 153: 6.17039987
Test Loss after epoch 154: 6.17068426
Test Loss after epoch 155: 6.17139135
Test Loss after epoch 156: 6.17133294
Test Loss after epoch 157: 6.17177621
Test Loss after epoch 158: 6.17032670
Test Loss after epoch 159: 6.17162595
Test Loss after epoch 160: 6.17182300
Test Loss after epoch 161: 6.17110305
Test Loss after epoch 162: 6.17280810
Test Loss after epoch 163: 6.17046151
Test Loss after epoch 164: 6.17154551
Test Loss after epoch 165: 6.17175110
Test Loss after epoch 166: 6.17275294
Test Loss after epoch 167: 6.17090328
Test Loss after epoch 168: 6.17290959
Test Loss after epoch 169: 6.17210581
Test Loss after epoch 170: 6.17171251
Test Loss after epoch 171: 6.17219564
Test Loss after epoch 172: 6.17177792
Test Loss after epoch 173: 6.17181195
Test Loss after epoch 174: 6.17173583
Test Loss after epoch 175: 6.17148957
Test Loss after epoch 176: 6.17184862
Test Loss after epoch 177: 6.16836260
Test Loss after epoch 178: 6.17159518
Test Loss after epoch 179: 6.17046949
Test Loss after epoch 180: 6.17089186
Test Loss after epoch 181: 6.17203550
Test Loss after epoch 182: 6.17147357
Test Loss after epoch 183: 6.17177638
Test Loss after epoch 184: 6.17113328
Test Loss after epoch 185: 6.17117385
Test Loss after epoch 186: 6.17288631
Test Loss after epoch 187: 6.17280829
Test Loss after epoch 188: 6.17276832
Test Loss after epoch 189: 6.17088359
Test Loss after epoch 190: 6.17065763
Test Loss after epoch 191: 6.17141701
Test Loss after epoch 192: 6.17247939
Test Loss after epoch 193: 6.17178778
Test Loss after epoch 194: 6.17144394
Test Loss after epoch 195: 6.17080013
Test Loss after epoch 196: 6.17118731
Test Loss after epoch 197: 6.17186384
Test Loss after epoch 198: 6.17181864
Test Loss after epoch 199: 6.17032017
Test Loss after epoch 200: 6.17134612
Test Loss after epoch 201: 6.17155847
Test Loss after epoch 202: 6.17078186
Test Loss after epoch 203: 6.17154869
Test Loss after epoch 204: 6.17208406
Test Loss after epoch 205: 6.17068038
Test Loss after epoch 206: 6.17143047
Test Loss after epoch 207: 6.17130028
Test Loss after epoch 208: 6.17217328
Test Loss after epoch 209: 6.17172325
Test Loss after epoch 210: 6.17013618
Test Loss after epoch 211: 6.17129133
Test Loss after epoch 212: 6.17137812
Test Loss after epoch 213: 6.17153824
Test Loss after epoch 214: 6.17190346
Test Loss after epoch 215: 6.17204902
Test Loss after epoch 216: 6.17046612
Test Loss after epoch 217: 6.17206607
Test Loss after epoch 218: 6.17225388
Test Loss after epoch 219: 6.17237561
Test Loss after epoch 220: 6.17126568
Test Loss after epoch 221: 6.17107572
Test Loss after epoch 222: 6.17173580
Test Loss after epoch 223: 6.17149534
Test Loss after epoch 224: 6.17197545
Test Loss after epoch 225: 6.17215609
Test Loss after epoch 226: 6.17165954
Test Loss after epoch 227: 6.17175432
Test Loss after epoch 228: 6.17141920
Test Loss after epoch 229: 6.17101692
Test Loss after epoch 230: 6.17109705
Test Loss after epoch 231: 6.17182319
Test Loss after epoch 232: 6.17240695
Test Loss after epoch 233: 6.17252102
Test Loss after epoch 234: 6.16941693
Test Loss after epoch 235: 6.17167232
Test Loss after epoch 236: 6.17255062
Test Loss after epoch 237: 6.17013595
Test Loss after epoch 238: 6.17149004
Test Loss after epoch 239: 6.17076133
Test Loss after epoch 240: 6.17206386
Test Loss after epoch 241: 6.17178422
Test Loss after epoch 242: 6.17205637
Test Loss after epoch 243: 6.17149934
Test Loss after epoch 244: 6.17084905
Test Loss after epoch 245: 6.17222271
Test Loss after epoch 246: 6.16986870
Test Loss after epoch 247: 6.17056581
Test Loss after epoch 248: 6.17171654
Test Loss after epoch 249: 6.17127483
Test Loss after epoch 250: 6.17024507
Test Loss after epoch 251: 6.17067061
Test Loss after epoch 252: 6.17181325
Test Loss after epoch 253: 6.16938002
Test Loss after epoch 254: 6.17196552
Test Loss after epoch 255: 6.17146791
Test Loss after epoch 256: 6.17006057
Test Loss after epoch 257: 6.16977574
Test Loss after epoch 258: 6.17077517
Test Loss after epoch 259: 6.17187819
Test Loss after epoch 260: 6.17121582
Test Loss after epoch 261: 6.17118834
Test Loss after epoch 262: 6.17025493
Test Loss after epoch 263: 6.17061506
Test Loss after epoch 264: 6.16992887
Test Loss after epoch 265: 6.17247421
Test Loss after epoch 266: 6.17142031
Test Loss after epoch 267: 6.17247083
Test Loss after epoch 268: 6.17149894
Test Loss after epoch 269: 6.17072699
Test Loss after epoch 270: 6.17081881
Test Loss after epoch 271: 6.17024889
Test Loss after epoch 272: 6.17067849
Test Loss after epoch 273: 6.17127609
Test Loss after epoch 274: 6.17034500
Test Loss after epoch 275: 6.17065272
Test Loss after epoch 276: 6.17079972
Test Loss after epoch 277: 6.17158043
Test Loss after epoch 278: 6.17132713
Test Loss after epoch 279: 6.17167119
Test Loss after epoch 280: 6.17130843
Test Loss after epoch 281: 6.17085172
Test Loss after epoch 282: 6.17179914
Test Loss after epoch 283: 6.17215043
Test Loss after epoch 284: 6.17222097
Test Loss after epoch 285: 6.16984323
Test Loss after epoch 286: 6.17079491
Test Loss after epoch 287: 6.17150221
Test Loss after epoch 288: 6.17034332
Test Loss after epoch 289: 6.17167508
Test Loss after epoch 290: 6.17135637
Test Loss after epoch 291: 6.17067395
Test Loss after epoch 292: 6.17118694
Test Loss after epoch 293: 6.17129402
Test Loss after epoch 294: 6.17098709
Test Loss after epoch 295: 6.17047467
Test Loss after epoch 296: 6.17030760
Test Loss after epoch 297: 6.17232210
Test Loss after epoch 298: 6.17185421
Test Loss after epoch 299: 6.17035741
